D3184199	1	user000008	23/03/2016	null
Q335L520	2	user000012	21/02/2016	null
QA762011	1	user000006	26/03/2016	null
D3184199	2	user000007	09/02/2016	16/02/2016
S5583200	5	user000007	21/03/2016	25/03/2016
5S661996	3	user000001	16/01/2016	null
QA76D3L5	2	user000015	20/03/2016	null
QA76D3L5	4	user000020	26/03/2016	null
G3653200	6	user000020	05/03/2016	11/03/2016
